{
  "project_info": {
    "project_number": "679933531626",
    "firebase_url": "https://redneckredemption-24c82.firebaseio.com",
    "project_id": "redneckredemption-24c82",
    "storage_bucket": "redneckredemption-24c82.appspot.com"
  },
  "client": [
    {
      "client_info": {
        "mobilesdk_app_id": "1:679933531626:android:8a7c74c16d429358160e93",
        "android_client_info": {
          "package_name": "com.MrPureshechka.RedneckRedemption"
        }
      },
      "oauth_client": [
        {
          "client_id": "679933531626-5iop5gpub54pp4sqdhmdr755cj2frb68.apps.googleusercontent.com",
          "client_type": 3
        }
      ],
      "api_key": [
        {
          "current_key": "AIzaSyCrPiy5gC3LIxYGQSu9rDjEHKRqLXQd2Gc"
        }
      ],
      "services": {
        "appinvite_service": {
          "other_platform_oauth_client": [
            {
              "client_id": "679933531626-5iop5gpub54pp4sqdhmdr755cj2frb68.apps.googleusercontent.com",
              "client_type": 3
            }
          ]
        }
      }
    }
  ],
  "configuration_version": "1"
}