%YAML 1.1
%TAG !u! tag:unity3d.com,2011:
--- !u!687078895 &4343727234628468602
SpriteAtlas:
  m_ObjectHideFlags: 0
  m_CorrespondingSourceObject: {fileID: 0}
  m_PrefabInstance: {fileID: 0}
  m_PrefabAsset: {fileID: 0}
  m_Name: MainMenuAndBlacklistRewardAndGameOverAtlas
  m_EditorData:
    serializedVersion: 2
    textureSettings:
      serializedVersion: 2
      anisoLevel: 1
      compressionQuality: 50
      maxTextureSize: 2048
      textureCompression: 0
      filterMode: 1
      generateMipMaps: 0
      readable: 0
      crunchedCompression: 0
      sRGB: 1
    platformSettings:
    - serializedVersion: 3
      m_BuildTarget: iPhone
      m_MaxTextureSize: 2048
      m_ResizeAlgorithm: 0
      m_TextureFormat: 65
      m_TextureCompression: 1
      m_CompressionQuality: 50
      m_CrunchedCompression: 0
      m_AllowsAlphaSplitting: 0
      m_Overridden: 1
      m_AndroidETC2FallbackOverride: 0
      m_ForceMaximumCompressionQuality_BC6H_BC7: 0
    - serializedVersion: 3
      m_BuildTarget: Android
      m_MaxTextureSize: 2048
      m_ResizeAlgorithm: 0
      m_TextureFormat: 65
      m_TextureCompression: 1
      m_CompressionQuality: 0
      m_CrunchedCompression: 0
      m_AllowsAlphaSplitting: 0
      m_Overridden: 1
      m_AndroidETC2FallbackOverride: 0
      m_ForceMaximumCompressionQuality_BC6H_BC7: 0
    packingSettings:
      serializedVersion: 2
      padding: 8
      blockOffset: 1
      allowAlphaSplitting: 0
      enableRotation: 1
      enableTightPacking: 0
    variantMultiplier: 1
    packables:
    - {fileID: 102900000, guid: d8e096d0ef33db546b5798218837ddcb, type: 3}
    - {fileID: 102900000, guid: 565df117871915f41a18eb87f7c07418, type: 3}
    - {fileID: 102900000, guid: 82e9f8ff04ef413499ca92362dc9e4aa, type: 3}
    totalSpriteSurfaceArea: 2644913
    bindAsDefault: 1
  m_MasterAtlas: {fileID: 0}
  m_PackedSprites:
  - {fileID: 21300000, guid: dd121ee0e07ffd6459f913d692dcfc85, type: 3}
  - {fileID: 21300000, guid: 3180caf02314f4f458b98ab1d9262acc, type: 3}
  - {fileID: 21300000, guid: 681c6d118ebc5d54fbf4694167ae97db, type: 3}
  - {fileID: 21300000, guid: ed1749d1602ec0d4295f430991ac4359, type: 3}
  - {fileID: 21300000, guid: db41ca6270bae7043b8b657f594f9a8e, type: 3}
  - {fileID: 21300000, guid: f94e5ed248242824684d06c1d5e1210a, type: 3}
  - {fileID: 21300000, guid: bf5b641307b6a9f498c3bad1dc4ee33d, type: 3}
  - {fileID: 21300000, guid: d90b3d433222e0b4bbd5fd8451835cb2, type: 3}
  - {fileID: 21300000, guid: e86c04944b8253149858ba1073d00330, type: 3}
  - {fileID: 21300000, guid: 286c0fc4df17d2243b989c89a438bbeb, type: 3}
  - {fileID: 21300000, guid: 7bcb9d054975aaa4f8c680f8a29a991f, type: 3}
  - {fileID: 21300000, guid: 2beba5271f1faa14f90d4cf42432f3e0, type: 3}
  - {fileID: 21300000, guid: a015f60859c7d45468c1ee367b4de16d, type: 3}
  - {fileID: 21300000, guid: efaf97d8f25fdb64fab8e3b3c9084fe8, type: 3}
  - {fileID: 21300000, guid: cadea30ac530fdc46a769294ff28d0ac, type: 3}
  - {fileID: 21300000, guid: 3857511ac74719d49846a5d187217463, type: 3}
  - {fileID: 21300000, guid: 51b0ee6a59887bf4a91d8f10299ba451, type: 3}
  - {fileID: 21300000, guid: f50e31da281ea464a86e7d3db68ebc21, type: 3}
  - {fileID: 21300000, guid: da4e709b79e08624886b1ea0d21a121f, type: 3}
  - {fileID: 21300000, guid: f8ecdaab6b2e3ea43a9c29800370d89f, type: 3}
  - {fileID: 21300000, guid: 0a83ce6c27ba08b48966cedcc572c802, type: 3}
  - {fileID: 21300000, guid: 418f149d7f9dbb8428791a1790decb6d, type: 3}
  - {fileID: 21300000, guid: 9aea8dadd1f262a44b0831b241d78a16, type: 3}
  - {fileID: 21300000, guid: aee486bec2838a94095d4b5273c25ff2, type: 3}
  - {fileID: 21300000, guid: fd96632fa69e10a448a404571a733ec4, type: 3}
  - {fileID: 21300000, guid: b7e840affe4e3bc4c94f94bd77b3dfd2, type: 3}
  m_PackedSpriteNamesToIndex:
  - arrow_icon
  - video_icon
  - countdown_cross
  - eliteaccess_icon
  - leaders_icon
  - normalreward_slot
  - spinagain_button
  - tryagain_icon
  - shop_icon
  - getareward_active_button
  - score_background
  - blacklistreward_background
  - chosenreward_slot
  - square_button
  - close_button
  - blacklist_icon
  - leaders_icon
  - blacklist_background
  - yes_button
  - video_icon
  - countdown_background
  - tryagain_square_button
  - googleplay_icon
  - secretreward_slot
  - coin_icon
  - done_icon
  m_Tag: MainMenuAndBlacklistRewardAndGameOverAtlas
  m_IsVariant: 0
